// Jest Snapshot v1, https://goo.gl/fbAQLP

exports[`A message input component matches with the snapshot 1`] = `
<View
  onLayout={[Function]}
  style={
    Object {
      "borderTopColor": "#e5e5e5",
      "borderTopWidth": 1,
      "flexDirection": "row",
      "paddingHorizontal": 4,
    }
  }
>
  <TextInput
    allowFontScaling={true}
    multiline={true}
    onChangeText={[Function]}
    onContentSizeChange={[Function]}
    placeholder="Type a message"
    rejectResponderTermination={true}
    style={
      Array [
        Object {
          "backgroundColor": "#f5f5f5",
          "borderRadius": 8,
          "color": "#4c4c4c",
          "flex": 8,
          "fontSize": 14,
          "margin": 4,
        },
        Object {
          "height": 35,
        },
      ]
    }
    underlineColorAndroid="transparent"
    value=""
  />
  <View
    accessible={true}
    isTVSelectable={true}
    onResponderGrant={[Function]}
    onResponderMove={[Function]}
    onResponderRelease={[Function]}
    onResponderTerminate={[Function]}
    onResponderTerminationRequest={[Function]}
    onStartShouldSetResponder={[Function]}
    style={
      Object {
        "alignItems": "center",
        "flex": 1,
        "justifyContent": "flex-end",
        "marginBottom": 8,
        "opacity": 1,
        "padding": 4,
      }
    }
  >
    <Text
      allowFontScaling={false}
      style={
        Array [
          Object {
            "color": undefined,
            "fontSize": 12,
          },
          Array [
            Object {
              "color": "#000",
              "fontSize": 30,
            },
            Object {
              "color": "#000",
              "fontSize": 30,
            },
            Object {
              "color": "#643023",
              "fontSize": 22,
            },
          ],
          Object {
            "fontFamily": "simple-line-icons",
            "fontStyle": "normal",
            "fontWeight": "normal",
          },
          Object {},
        ]
      }
      type="SimpleLineIcons"
    >
      
    </Text>
  </View>
</View>
`;
