// Jest Snapshot v1, https://goo.gl/fbAQLP

exports[`A container component for submission list items matches with the snapshot 1`] = `
<RCTScrollView
  data={
    Array [
      Object {
        "data": Array [
          Object {
            "authors": "Giorno Giovanna",
            "date": "22-07-2019",
            "id": "1",
            "organization": "Universitas Indonesia",
            "time": "10:00 - 11:30",
            "title": "Test",
          },
          Object {
            "authors": "Dio Sama, Giorno Giovanna and Joko Sembung",
            "date": "22-07-2019",
            "id": "3",
            "time": "11:30 - 12:00",
            "title": "Road Roller",
          },
        ],
        "title": "22-07-2019",
      },
      Object {
        "data": Array [
          Object {
            "authors": "Giorno Giovanna and Bruno Mars",
            "date": "23-07-2019",
            "id": "45",
            "organization": "Universitas Indonesia",
            "time": "11:30 - 12:00",
            "title": "Android-based Wireless Measurement Module",
          },
        ],
        "title": "23-07-2019",
      },
    ]
  }
  disableVirtualization={false}
  getItem={[Function]}
  getItemCount={[Function]}
  horizontal={false}
  initialNumToRender={10}
  keyExtractor={[Function]}
  maxToRenderPerBatch={10}
  onContentSizeChange={[Function]}
  onEndReachedThreshold={2}
  onLayout={[Function]}
  onMomentumScrollEnd={[Function]}
  onScroll={[Function]}
  onScrollBeginDrag={[Function]}
  onScrollEndDrag={[Function]}
  renderItem={[Function]}
  renderSectionHeader={[Function]}
  scrollEventThrottle={50}
  sections={
    Array [
      Object {
        "data": Array [
          Object {
            "authors": "Giorno Giovanna",
            "date": "22-07-2019",
            "id": "1",
            "organization": "Universitas Indonesia",
            "time": "10:00 - 11:30",
            "title": "Test",
          },
          Object {
            "authors": "Dio Sama, Giorno Giovanna and Joko Sembung",
            "date": "22-07-2019",
            "id": "3",
            "time": "11:30 - 12:00",
            "title": "Road Roller",
          },
        ],
        "title": "22-07-2019",
      },
      Object {
        "data": Array [
          Object {
            "authors": "Giorno Giovanna and Bruno Mars",
            "date": "23-07-2019",
            "id": "45",
            "organization": "Universitas Indonesia",
            "time": "11:30 - 12:00",
            "title": "Android-based Wireless Measurement Module",
          },
        ],
        "title": "23-07-2019",
      },
    ]
  }
  stickyHeaderIndices={
    Array [
      0,
      4,
    ]
  }
  stickySectionHeadersEnabled={true}
  updateCellsBatchingPeriod={50}
  windowSize={21}
>
  <View>
    <View
      onLayout={[Function]}
      style={null}
    >
      <View
        style={
          Object {
            "backgroundColor": "#e2ddee",
          }
        }
      >
        <Text
          style={
            Array [
              Object {
                "color": "#000",
                "fontSize": 27,
                "lineHeight": 32,
              },
              Object {
                "fontSize": 16,
                "fontWeight": "bold",
                "padding": 8,
                "textTransform": "uppercase",
              },
              Object {
                "color": "#000",
              },
            ]
          }
        >
          22-07-2019
        </Text>
      </View>
    </View>
    <View
      onLayout={[Function]}
      style={null}
    >
      <View>
        <View
          style={
            Object {
              "flexDirection": "row",
              "marginBottom": 8,
            }
          }
        >
          <View
            style={
              Object {
                "alignSelf": "center",
                "flex": 0,
                "marginHorizontal": 12,
              }
            }
          >
            <Text
              style={
                Object {
                  "color": "#000",
                  "fontFamily": "System",
                  "fontSize": 16,
                }
              }
              uppercase={false}
            >
              1
            </Text>
          </View>
          <View
            style={
              Object {
                "flex": 5,
                "flexDirection": "column",
              }
            }
          >
            <Text
              style={
                Array [
                  Object {
                    "color": "#000",
                    "fontFamily": "System",
                    "fontSize": 16,
                  },
                  Object {
                    "fontSize": 16,
                    "fontWeight": "bold",
                    "marginVertical": 4,
                  },
                ]
              }
              uppercase={false}
            >
              Test
            </Text>
            <Text
              style={
                Array [
                  Object {
                    "color": "#000",
                    "fontFamily": "System",
                    "fontSize": 16,
                  },
                  Object {
                    "fontSize": 14,
                    "marginVertical": 4,
                  },
                ]
              }
              uppercase={false}
            >
              Giorno Giovanna
            </Text>
            <View
              accessible={true}
              isTVSelectable={true}
              onResponderGrant={[Function]}
              onResponderMove={[Function]}
              onResponderRelease={[Function]}
              onResponderTerminate={[Function]}
              onResponderTerminationRequest={[Function]}
              onStartShouldSetResponder={[Function]}
              style={null}
            >
              <Text
                style={
                  Array [
                    Object {
                      "color": "#000",
                      "fontFamily": "System",
                      "fontSize": 16,
                    },
                    Object {
                      "color": "#ffd504",
                      "fontSize": 12,
                      "marginVertical": 4,
                      "textTransform": "uppercase",
                    },
                  ]
                }
                uppercase={false}
              >
                View Detail
              </Text>
            </View>
          </View>
        </View>
        <View
          style={
            Object {
              "borderColor": "#e2ddee",
              "borderWidth": 1,
            }
          }
        />
      </View>
    </View>
    <View
      onLayout={[Function]}
      style={null}
    >
      <View
        style={
          Object {
            "flexDirection": "row",
            "marginBottom": 8,
          }
        }
      >
        <View
          style={
            Object {
              "alignSelf": "center",
              "flex": 0,
              "marginHorizontal": 12,
            }
          }
        >
          <Text
            style={
              Object {
                "color": "#000",
                "fontFamily": "System",
                "fontSize": 16,
              }
            }
            uppercase={false}
          >
            2
          </Text>
        </View>
        <View
          style={
            Object {
              "flex": 5,
              "flexDirection": "column",
            }
          }
        >
          <Text
            style={
              Array [
                Object {
                  "color": "#000",
                  "fontFamily": "System",
                  "fontSize": 16,
                },
                Object {
                  "fontSize": 16,
                  "fontWeight": "bold",
                  "marginVertical": 4,
                },
              ]
            }
            uppercase={false}
          >
            Road Roller
          </Text>
          <Text
            style={
              Array [
                Object {
                  "color": "#000",
                  "fontFamily": "System",
                  "fontSize": 16,
                },
                Object {
                  "fontSize": 14,
                  "marginVertical": 4,
                },
              ]
            }
            uppercase={false}
          >
            Dio Sama, Giorno Giovanna and Joko Sembung
          </Text>
          <View
            accessible={true}
            isTVSelectable={true}
            onResponderGrant={[Function]}
            onResponderMove={[Function]}
            onResponderRelease={[Function]}
            onResponderTerminate={[Function]}
            onResponderTerminationRequest={[Function]}
            onStartShouldSetResponder={[Function]}
            style={null}
          >
            <Text
              style={
                Array [
                  Object {
                    "color": "#000",
                    "fontFamily": "System",
                    "fontSize": 16,
                  },
                  Object {
                    "color": "#ffd504",
                    "fontSize": 12,
                    "marginVertical": 4,
                    "textTransform": "uppercase",
                  },
                ]
              }
              uppercase={false}
            >
              View Detail
            </Text>
          </View>
        </View>
      </View>
    </View>
    <View
      onLayout={[Function]}
      style={null}
    />
    <View
      onLayout={[Function]}
      style={null}
    >
      <View
        style={
          Object {
            "backgroundColor": "#e2ddee",
          }
        }
      >
        <Text
          style={
            Array [
              Object {
                "color": "#000",
                "fontSize": 27,
                "lineHeight": 32,
              },
              Object {
                "fontSize": 16,
                "fontWeight": "bold",
                "padding": 8,
                "textTransform": "uppercase",
              },
              Object {
                "color": "#000",
              },
            ]
          }
        >
          23-07-2019
        </Text>
      </View>
    </View>
    <View
      onLayout={[Function]}
      style={null}
    >
      <View
        style={
          Object {
            "flexDirection": "row",
            "marginBottom": 8,
          }
        }
      >
        <View
          style={
            Object {
              "alignSelf": "center",
              "flex": 0,
              "marginHorizontal": 12,
            }
          }
        >
          <Text
            style={
              Object {
                "color": "#000",
                "fontFamily": "System",
                "fontSize": 16,
              }
            }
            uppercase={false}
          >
            1
          </Text>
        </View>
        <View
          style={
            Object {
              "flex": 5,
              "flexDirection": "column",
            }
          }
        >
          <Text
            style={
              Array [
                Object {
                  "color": "#000",
                  "fontFamily": "System",
                  "fontSize": 16,
                },
                Object {
                  "fontSize": 16,
                  "fontWeight": "bold",
                  "marginVertical": 4,
                },
              ]
            }
            uppercase={false}
          >
            Android-based Wireless Measurement Module
          </Text>
          <Text
            style={
              Array [
                Object {
                  "color": "#000",
                  "fontFamily": "System",
                  "fontSize": 16,
                },
                Object {
                  "fontSize": 14,
                  "marginVertical": 4,
                },
              ]
            }
            uppercase={false}
          >
            Giorno Giovanna and Bruno Mars
          </Text>
          <View
            accessible={true}
            isTVSelectable={true}
            onResponderGrant={[Function]}
            onResponderMove={[Function]}
            onResponderRelease={[Function]}
            onResponderTerminate={[Function]}
            onResponderTerminationRequest={[Function]}
            onStartShouldSetResponder={[Function]}
            style={null}
          >
            <Text
              style={
                Array [
                  Object {
                    "color": "#000",
                    "fontFamily": "System",
                    "fontSize": 16,
                  },
                  Object {
                    "color": "#ffd504",
                    "fontSize": 12,
                    "marginVertical": 4,
                    "textTransform": "uppercase",
                  },
                ]
              }
              uppercase={false}
            >
              View Detail
            </Text>
          </View>
        </View>
      </View>
    </View>
    <View
      onLayout={[Function]}
      style={null}
    />
  </View>
</RCTScrollView>
`;
